{
  "formatVersion": 1,
  "database": {
    "version": 1,
    "identityHash": "d677cef816a723d4d39adde42f4d695c",
    "entities": [
      {
        "tableName": "farms",
        "createSql": "CREATE TABLE IF NOT EXISTS `${TABLE_NAME}` (`farmID` INTEGER NOT NULL, `farmName` TEXT, PRIMARY KEY(`farmID`))",
        "fields": [
          {
            "fieldPath": "farmID",
            "columnName": "farmID",
            "affinity": "INTEGER",
            "notNull": true
          },
          {
            "fieldPath": "farmName",
            "columnName": "farmName",
            "affinity": "TEXT",
            "notNull": false
          }
        ],
        "primaryKey": {
          "columnNames": [
            "farmID"
          ],
          "autoGenerate": false
        },
        "indices": [
          {
            "name": "index_farms_farmName",
            "unique": true,
            "columnNames": [
              "farmName"
            ],
            "createSql": "CREATE UNIQUE INDEX `index_farms_farmName` ON `${TABLE_NAME}` (`farmName`)"
          }
        ],
        "foreignKeys": []
      },
      {
        "tableName": "tables",
        "createSql": "CREATE TABLE IF NOT EXISTS `${TABLE_NAME}` (`tableID` INTEGER NOT NULL, `farmID` INTEGER NOT NULL, PRIMARY KEY(`tableID`), FOREIGN KEY(`farmID`) REFERENCES `farms`(`farmID`) ON UPDATE NO ACTION ON DELETE NO ACTION )",
        "fields": [
          {
            "fieldPath": "tableID",
            "columnName": "tableID",
            "affinity": "INTEGER",
            "notNull": true
          },
          {
            "fieldPath": "farmID",
            "columnName": "farmID",
            "affinity": "INTEGER",
            "notNull": true
          }
        ],
        "primaryKey": {
          "columnNames": [
            "tableID"
          ],
          "autoGenerate": false
        },
        "indices": [
          {
            "name": "index_tables_tableID",
            "unique": true,
            "columnNames": [
              "tableID"
            ],
            "createSql": "CREATE UNIQUE INDEX `index_tables_tableID` ON `${TABLE_NAME}` (`tableID`)"
          },
          {
            "name": "index_tables_farmID",
            "unique": false,
            "columnNames": [
              "farmID"
            ],
            "createSql": "CREATE  INDEX `index_tables_farmID` ON `${TABLE_NAME}` (`farmID`)"
          }
        ],
        "foreignKeys": [
          {
            "table": "farms",
            "onDelete": "NO ACTION",
            "onUpdate": "NO ACTION",
            "columns": [
              "farmID"
            ],
            "referencedColumns": [
              "farmID"
            ]
          }
        ]
      },
      {
        "tableName": "produce",
        "createSql": "CREATE TABLE IF NOT EXISTS `${TABLE_NAME}` (`produceID` INTEGER NOT NULL, `produceName` TEXT, `tableID` INTEGER NOT NULL, PRIMARY KEY(`produceID`), FOREIGN KEY(`tableID`) REFERENCES `tables`(`tableID`) ON UPDATE NO ACTION ON DELETE NO ACTION )",
        "fields": [
          {
            "fieldPath": "produceID",
            "columnName": "produceID",
            "affinity": "INTEGER",
            "notNull": true
          },
          {
            "fieldPath": "produceName",
            "columnName": "produceName",
            "affinity": "TEXT",
            "notNull": false
          },
          {
            "fieldPath": "tableID",
            "columnName": "tableID",
            "affinity": "INTEGER",
            "notNull": true
          }
        ],
        "primaryKey": {
          "columnNames": [
            "produceID"
          ],
          "autoGenerate": false
        },
        "indices": [
          {
            "name": "index_produce_produceID",
            "unique": true,
            "columnNames": [
              "produceID"
            ],
            "createSql": "CREATE UNIQUE INDEX `index_produce_produceID` ON `${TABLE_NAME}` (`produceID`)"
          },
          {
            "name": "index_produce_tableID",
            "unique": true,
            "columnNames": [
              "tableID"
            ],
            "createSql": "CREATE UNIQUE INDEX `index_produce_tableID` ON `${TABLE_NAME}` (`tableID`)"
          }
        ],
        "foreignKeys": [
          {
            "table": "tables",
            "onDelete": "NO ACTION",
            "onUpdate": "NO ACTION",
            "columns": [
              "tableID"
            ],
            "referencedColumns": [
              "tableID"
            ]
          }
        ]
      }
    ],
    "setupQueries": [
      "CREATE TABLE IF NOT EXISTS room_master_table (id INTEGER PRIMARY KEY,identity_hash TEXT)",
      "INSERT OR REPLACE INTO room_master_table (id,identity_hash) VALUES(42, \"d677cef816a723d4d39adde42f4d695c\")"
    ]
  }
}